<?xml version="1.0" encoding="utf-8"?>
<!-- Generator: Adobe Illustrator 24.1.3, SVG Export Plug-In . SVG Version: 6.00 Build 0)  -->
<svg version="1.1" id="Layer_1" xmlns="http://www.w3.org/2000/svg" xmlns:xlink="http://www.w3.org/1999/xlink" x="0px" y="0px"
	 viewBox="0 0 1200 630" style="enable-background:new 0 0 1200 630;" xml:space="preserve">
<style type="text/css">
	.st0{fill:#A1F4F7;}
	.st1{fill:url(#SVGID_1_);}
	.st2{fill:none;}
	.st3{font-family:'Ubuntu-Regular';}
	.st4{font-size:120px;}
</style>
<g id="Layer_2_2_">
	<g>
		<rect class="st0" width="1200" height="630"/>
	</g>
</g>
<linearGradient id="SVGID_1_" gradientUnits="userSpaceOnUse" x1="598.4259" y1="632.9625" x2="601.5586" y2="0.1624">
	<stop  offset="0" style="stop-color:#FFFFFF"/>
	<stop  offset="1" style="stop-color:#000000;stop-opacity:0"/>
</linearGradient>
<rect class="st1" width="1200" height="630"/>
<rect x="153.53" y="261.23" class="st2" width="893" height="107"/>
<text transform="matrix(1 0 0 1 153.5283 354.347)" class="st3 st4">tools for dissent</text>
</svg>
